<?xml version="1.0" encoding="UTF-8" standalone="no"?>
<!-- Created with Inkscape (http://www.inkscape.org/) -->

<svg
   width="101.08858mm"
   height="71.671921mm"
   viewBox="0 0 101.08858 71.671921"
   version="1.1"
   id="svg5"
   inkscape:version="1.2.1 (9c6d41e410, 2022-07-14)"
   sodipodi:docname="git_merge_init.svg"
   xmlns:inkscape="http://www.inkscape.org/namespaces/inkscape"
   xmlns:sodipodi="http://sodipodi.sourceforge.net/DTD/sodipodi-0.dtd"
   xmlns="http://www.w3.org/2000/svg"
   xmlns:svg="http://www.w3.org/2000/svg">
  <sodipodi:namedview
     id="namedview7"
     pagecolor="#ffffff"
     bordercolor="#666666"
     borderopacity="1.0"
     inkscape:showpageshadow="2"
     inkscape:pageopacity="0.0"
     inkscape:pagecheckerboard="0"
     inkscape:deskcolor="#d1d1d1"
     inkscape:document-units="mm"
     showgrid="false"
     inkscape:zoom="1.4912879"
     inkscape:cx="372.49682"
     inkscape:cy="153.55854"
     inkscape:window-width="1920"
     inkscape:window-height="1057"
     inkscape:window-x="1912"
     inkscape:window-y="-8"
     inkscape:window-maximized="1"
     inkscape:current-layer="svg5" />
  <defs
     id="defs2">
    <rect
       x="199.82729"
       y="547.84863"
       width="69.73838"
       height="22.128523"
       id="rect6927" />
    <rect
       x="240.06096"
       y="243.41377"
       width="60.015244"
       height="20.452122"
       id="rect4023" />
    <rect
       x="270.74448"
       y="539.59235"
       width="164.05882"
       height="69.227135"
       id="rect3012" />
    <linearGradient
       id="linearGradient2102"
       inkscape:swatch="solid">
      <stop
         style="stop-color:#000000;stop-opacity:1;"
         offset="0"
         id="stop2100" />
    </linearGradient>
    <marker
       style="overflow:visible"
       id="Arrow1"
       refX="0"
       refY="0"
       orient="auto-start-reverse"
       inkscape:stockid="Arrow1"
       markerWidth="4.0606599"
       markerHeight="6.7071066"
       viewBox="0 0 4.0606602 6.7071068"
       inkscape:isstock="true"
       inkscape:collect="always"
       preserveAspectRatio="xMidYMid">
      <path
         style="fill:none;stroke:context-stroke;stroke-width:1;stroke-linecap:butt"
         d="M 3,-3 0,0 3,3"
         id="path5057"
         transform="rotate(180,0.125,0)"
         sodipodi:nodetypes="ccc" />
    </marker>
  </defs>
  <g
     inkscape:label="Calque 1"
     inkscape:groupmode="layer"
     id="layer1"
     transform="translate(-28.004594,-69.135814)">
    <circle
       style="fill:#ffffff;fill-opacity:1;stroke:#000000;stroke-width:0.765;stroke-dasharray:none"
       id="path111"
       cx="33.709675"
       cy="113.54839"
       r="5.3225808" />
    <circle
       style="fill:#ffffff;fill-opacity:1;stroke:#000000;stroke-width:0.765;stroke-dasharray:none"
       id="path111-6"
       cx="51.693729"
       cy="113.57969"
       r="5.3225808" />
    <path
       style="fill:none;fill-rule:evenodd;stroke:#000000;stroke-width:0.765;stroke-linecap:butt;stroke-linejoin:miter;stroke-dasharray:none;stroke-opacity:1"
       d="m 39.032199,113.55766 7.339006,0.0128"
       id="path1188"
       inkscape:connector-type="polyline"
       inkscape:connector-curvature="0"
       inkscape:connection-start="#path111"
       inkscape:connection-end="#path111-6" />
    <circle
       style="fill:#96fff3;fill-opacity:1;stroke:#000000;stroke-width:0.765;stroke-dasharray:none"
       id="path111-1"
       cx="81.890442"
       cy="113.64606"
       r="5.3225808" />
    <circle
       style="fill:#96fff3;fill-opacity:1;stroke:#000000;stroke-width:0.765;stroke-dasharray:none"
       id="path111-6-6"
       cx="99.874519"
       cy="113.67736"
       r="5.3225808" />
    <path
       style="fill:none;fill-rule:evenodd;stroke:#000000;stroke-width:0.765;stroke-linecap:butt;stroke-linejoin:miter;stroke-dasharray:none;stroke-opacity:1"
       d="m 87.212966,113.65532 7.339029,0.0128"
       id="path1188-5"
       inkscape:connector-type="polyline"
       inkscape:connector-curvature="0"
       inkscape:connection-start="#path111-1"
       inkscape:connection-end="#path111-6-6" />
    <path
       style="fill:none;fill-rule:evenodd;stroke:#000000;stroke-width:0.765;stroke-linecap:butt;stroke-linejoin:miter;stroke-dasharray:none;stroke-opacity:1"
       d="m 57.016238,113.59139 19.551695,0.043"
       id="path1222"
       inkscape:connector-type="polyline"
       inkscape:connector-curvature="0"
       inkscape:connection-start="#path111-6"
       inkscape:connection-end="#path111-1" />
    <circle
       style="fill:#36c68d;fill-opacity:1;stroke:#000000;stroke-width:0.765;stroke-dasharray:none"
       id="path111-3"
       cx="81.868797"
       cy="95.675995"
       r="5.3225808" />
    <circle
       style="fill:#36c68d;fill-opacity:1;stroke:#000000;stroke-width:0.765;stroke-dasharray:none"
       id="path111-6-1"
       cx="99.852852"
       cy="95.707245"
       r="5.3225808" />
    <path
       style="fill:none;fill-rule:evenodd;stroke:#000000;stroke-width:0.765;stroke-linecap:butt;stroke-linejoin:miter;stroke-dasharray:none;stroke-opacity:1"
       d="m 87.191321,95.685244 7.339007,0.01275"
       id="path1188-0"
       inkscape:connector-type="polyline"
       inkscape:connector-curvature="0"
       inkscape:connection-start="#path111-3"
       inkscape:connection-end="#path111-6-1" />
    <circle
       style="fill:#36c68d;fill-opacity:1;stroke:#000000;stroke-width:0.765;stroke-dasharray:none"
       id="path111-6-1-4"
       cx="117.81921"
       cy="95.694115"
       r="5.3225808" />
    <path
       style="fill:none;fill-rule:evenodd;stroke:#000000;stroke-width:0.765;stroke-linecap:butt;stroke-linejoin:miter;stroke-dasharray:none;stroke-opacity:1"
       d="M 56.271145,110.86378 77.291382,98.391901"
       id="path1347"
       inkscape:connector-type="polyline"
       inkscape:connector-curvature="0"
       inkscape:connection-start="#path111-6"
       inkscape:connection-end="#path111-3" />
    <path
       style="fill:none;fill-rule:evenodd;stroke:#000000;stroke-width:0.765;stroke-linecap:butt;stroke-linejoin:miter;stroke-dasharray:none;stroke-opacity:1"
       d="m 105.17541,95.703355 7.32124,-0.0054"
       id="path1408"
       inkscape:connector-type="polyline"
       inkscape:connector-curvature="0"
       inkscape:connection-start="#path111-6-1"
       inkscape:connection-end="#path111-6-1-4" />
    <path
       style="fill:none;fill-rule:evenodd;stroke:#000000;stroke-width:0.565;stroke-linecap:butt;stroke-linejoin:miter;stroke-dasharray:none;stroke-opacity:1;marker-end:url(#Arrow1)"
       d="m 99.868102,129.52162 -0.0088,-7.32503"
       id="path1759"
       inkscape:connector-type="polyline"
       inkscape:connector-curvature="0" />
    <rect
       style="fill:#96fff3;fill-opacity:1;stroke:#000000;stroke-width:0.516;stroke-linecap:round;stroke-linejoin:round;stroke-dasharray:none;stroke-opacity:1"
       id="rect3766"
       width="22.605392"
       height="8.6799517"
       x="88.370827"
       y="131.86978" />
    <path
       style="fill:none;fill-rule:evenodd;stroke:#000000;stroke-width:0.565;stroke-linecap:butt;stroke-linejoin:miter;stroke-dasharray:none;stroke-opacity:1;marker-start:url(#Arrow1)"
       d="m 117.64145,87.540707 -0.009,-7.32503"
       id="path1759-2"
       inkscape:connector-type="polyline"
       inkscape:connector-curvature="0" />
    <rect
       style="fill:#36c68d;fill-opacity:1;stroke:#000000;stroke-width:0.516;stroke-linecap:round;stroke-linejoin:round;stroke-dasharray:none;stroke-opacity:1"
       id="rect3766-5"
       width="22.605392"
       height="8.6799517"
       x="106.22979"
       y="69.393814" />
    <text
       xml:space="preserve"
       id="text4021"
       style="font-style:normal;font-weight:normal;font-size:4.23333px;line-height:1.25;font-family:sans-serif;letter-spacing:0px;word-spacing:0px;white-space:pre;shape-inside:url(#rect3766-5);display:inline;fill:#000000;fill-opacity:1;stroke:none"
       transform="translate(3.1750001,1.5875)"><tspan
         x="106.23047"
         y="73.246333"
         id="tspan15400">Feature</tspan></text>
    <text
       xml:space="preserve"
       id="text6925"
       style="font-style:normal;font-weight:normal;font-size:4.5861px;line-height:1.25;font-family:sans-serif;letter-spacing:0px;word-spacing:0px;white-space:pre;shape-inside:url(#rect3766);display:inline;fill:#000000;fill-opacity:1;stroke:none"
       transform="translate(2.6458334,1.5875)"><tspan
         x="88.371094"
         y="136.04192"
         id="tspan15402">Develop</tspan></text>
  </g>
</svg>
